estrutural/v_estrut.vcd
$date
  Tue Mar 13 15:10:43 2018
$end
$version
  GHDL v0
$end
$timescale
  1 fs
$end
$var reg 1 ! inp $end
$var reg 1 " s0 $end
$var reg 1 # s1 $end
$var reg 1 $ s2 $end
$var reg 3 % s[2:0] $end
$var reg 1 & saidamux2 $end
$var reg 1 ' saidamux4 $end
$var reg 1 ( saidamux8 $end
$var reg 1 ) saidamux8vet $end
$var reg 1 * esperadamux $end
$var reg 2 + entr_2[1:0] $end
$var reg 2 , sdemux2[1:0] $end
$var reg 2 - sdecod2[1:0] $end
$var reg 2 . esperadademux_2[1:0] $end
$var reg 2 / esperadadecod_2[1:0] $end
$var reg 4 0 entr_4[3:0] $end
$var reg 4 1 sdemux4[3:0] $end
$var reg 4 2 sdecod4[3:0] $end
$var reg 4 3 esperadademux_4[3:0] $end
$var reg 4 4 esperadadecod_4[3:0] $end
$var reg 8 5 entr_8[7:0] $end
$var reg 8 6 sdecod8[7:0] $end
$var reg 8 7 sdemux8[7:0] $end
$var reg 8 8 esperadademux_8[7:0] $end
$var reg 8 9 esperadadecod_8[7:0] $end
$scope module u_mux2 $end
$var reg 1 : a $end
$var reg 1 ; b $end
$var reg 1 < s $end
$var reg 1 = z $end
$var reg 1 > r $end
$var reg 1 ? p $end
$var reg 1 @ q $end
$scope module ui $end
$var reg 1 A a $end
$var reg 1 B s $end
$upscope $end
$scope module ua0 $end
$var reg 1 C a $end
$var reg 1 D b $end
$var reg 1 E s $end
$upscope $end
$scope module ua1 $end
$var reg 1 F a $end
$var reg 1 G b $end
$var reg 1 H s $end
$upscope $end
$scope module uor $end
$var reg 1 I a $end
$var reg 1 J b $end
$var reg 1 K s $end
$upscope $end
$upscope $end
$scope module u_mux4 $end
$var reg 1 L a $end
$var reg 1 M b $end
$var reg 1 N c $end
$var reg 1 O d $end
$var reg 1 P s0 $end
$var reg 1 Q s1 $end
$var reg 1 R z $end
$var reg 1 S p $end
$var reg 1 T q $end
$var reg 1 U r $end
$scope module um1 $end
$var reg 1 V a $end
$var reg 1 W b $end
$var reg 1 X s $end
$var reg 1 Y z $end
$var reg 1 Z r $end
$var reg 1 [ p $end
$var reg 1 \ q $end
$scope module ui $end
$var reg 1 ] a $end
$var reg 1 ^ s $end
$upscope $end
$scope module ua0 $end
$var reg 1 _ a $end
$var reg 1 ` b $end
$var reg 1 a s $end
$upscope $end
$scope module ua1 $end
$var reg 1 b a $end
$var reg 1 c b $end
$var reg 1 d s $end
$upscope $end
$scope module uor $end
$var reg 1 e a $end
$var reg 1 f b $end
$var reg 1 g s $end
$upscope $end
$upscope $end
$scope module um2 $end
$var reg 1 h a $end
$var reg 1 i b $end
$var reg 1 j s $end
$var reg 1 k z $end
$var reg 1 l r $end
$var reg 1 m p $end
$var reg 1 n q $end
$scope module ui $end
$var reg 1 o a $end
$var reg 1 p s $end
$upscope $end
$scope module ua0 $end
$var reg 1 q a $end
$var reg 1 r b $end
$var reg 1 s s $end
$upscope $end
$scope module ua1 $end
$var reg 1 t a $end
$var reg 1 u b $end
$var reg 1 v s $end
$upscope $end
$scope module uor $end
$var reg 1 w a $end
$var reg 1 x b $end
$var reg 1 y s $end
$upscope $end
$upscope $end
$scope module um3 $end
$var reg 1 z a $end
$var reg 1 { b $end
$var reg 1 | s $end
$var reg 1 } z $end
$var reg 1 !" r $end
$var reg 1 "" p $end
$var reg 1 #" q $end
$scope module ui $end
$var reg 1 $" a $end
$var reg 1 %" s $end
$upscope $end
$scope module ua0 $end
$var reg 1 &" a $end
$var reg 1 '" b $end
$var reg 1 (" s $end
$upscope $end
$scope module ua1 $end
$var reg 1 )" a $end
$var reg 1 *" b $end
$var reg 1 +" s $end
$upscope $end
$scope module uor $end
$var reg 1 ," a $end
$var reg 1 -" b $end
$var reg 1 ." s $end
$upscope $end
$upscope $end
$upscope $end
$scope module u_mux8 $end
$var reg 1 /" a $end
$var reg 1 0" b $end
$var reg 1 1" c $end
$var reg 1 2" d $end
$var reg 1 3" e $end
$var reg 1 4" f $end
$var reg 1 5" g $end
$var reg 1 6" h $end
$var reg 1 7" s0 $end
$var reg 1 8" s1 $end
$var reg 1 9" s2 $end
$var reg 1 :" z $end
$var reg 1 ;" p $end
$var reg 1 <" q $end
$var reg 1 =" r $end
$scope module um1 $end
$var reg 1 >" a $end
$var reg 1 ?" b $end
$var reg 1 @" c $end
$var reg 1 A" d $end
$var reg 1 B" s0 $end
$var reg 1 C" s1 $end
$var reg 1 D" z $end
$var reg 1 E" p $end
$var reg 1 F" q $end
$var reg 1 G" r $end
$scope module um1 $end
$var reg 1 H" a $end
$var reg 1 I" b $end
$var reg 1 J" s $end
$var reg 1 K" z $end
$var reg 1 L" r $end
$var reg 1 M" p $end
$var reg 1 N" q $end
$scope module ui $end
$var reg 1 O" a $end
$var reg 1 P" s $end
$upscope $end
$scope module ua0 $end
$var reg 1 Q" a $end
$var reg 1 R" b $end
$var reg 1 S" s $end
$upscope $end
$scope module ua1 $end
$var reg 1 T" a $end
$var reg 1 U" b $end
$var reg 1 V" s $end
$upscope $end
$scope module uor $end
$var reg 1 W" a $end
$var reg 1 X" b $end
$var reg 1 Y" s $end
$upscope $end
$upscope $end
$scope module um2 $end
$var reg 1 Z" a $end
$var reg 1 [" b $end
$var reg 1 \" s $end
$var reg 1 ]" z $end
$var reg 1 ^" r $end
$var reg 1 _" p $end
$var reg 1 `" q $end
$scope module ui $end
$var reg 1 a" a $end
$var reg 1 b" s $end
$upscope $end
$scope module ua0 $end
$var reg 1 c" a $end
$var reg 1 d" b $end
$var reg 1 e" s $end
$upscope $end
$scope module ua1 $end
$var reg 1 f" a $end
$var reg 1 g" b $end
$var reg 1 h" s $end
$upscope $end
$scope module uor $end
$var reg 1 i" a $end
$var reg 1 j" b $end
$var reg 1 k" s $end
$upscope $end
$upscope $end
$scope module um3 $end
$var reg 1 l" a $end
$var reg 1 m" b $end
$var reg 1 n" s $end
$var reg 1 o" z $end
$var reg 1 p" r $end
$var reg 1 q" p $end
$var reg 1 r" q $end
$scope module ui $end
$var reg 1 s" a $end
$var reg 1 t" s $end
$upscope $end
$scope module ua0 $end
$var reg 1 u" a $end
$var reg 1 v" b $end
$var reg 1 w" s $end
$upscope $end
$scope module ua1 $end
$var reg 1 x" a $end
$var reg 1 y" b $end
$var reg 1 z" s $end
$upscope $end
$scope module uor $end
$var reg 1 {" a $end
$var reg 1 |" b $end
$var reg 1 }" s $end
$upscope $end
$upscope $end
$upscope $end
$scope module um2 $end
$var reg 1 !# a $end
$var reg 1 "# b $end
$var reg 1 ## c $end
$var reg 1 $# d $end
$var reg 1 %# s0 $end
$var reg 1 &# s1 $end
$var reg 1 '# z $end
$var reg 1 (# p $end
$var reg 1 )# q $end
$var reg 1 *# r $end
$scope module um1 $end
$var reg 1 +# a $end
$var reg 1 ,# b $end
$var reg 1 -# s $end
$var reg 1 .# z $end
$var reg 1 /# r $end
$var reg 1 0# p $end
$var reg 1 1# q $end
$scope module ui $end
$var reg 1 2# a $end
$var reg 1 3# s $end
$upscope $end
$scope module ua0 $end
$var reg 1 4# a $end
$var reg 1 5# b $end
$var reg 1 6# s $end
$upscope $end
$scope module ua1 $end
$var reg 1 7# a $end
$var reg 1 8# b $end
$var reg 1 9# s $end
$upscope $end
$scope module uor $end
$var reg 1 :# a $end
$var reg 1 ;# b $end
$var reg 1 <# s $end
$upscope $end
$upscope $end
$scope module um2 $end
$var reg 1 =# a $end
$var reg 1 ># b $end
$var reg 1 ?# s $end
$var reg 1 @# z $end
$var reg 1 A# r $end
$var reg 1 B# p $end
$var reg 1 C# q $end
$scope module ui $end
$var reg 1 D# a $end
$var reg 1 E# s $end
$upscope $end
$scope module ua0 $end
$var reg 1 F# a $end
$var reg 1 G# b $end
$var reg 1 H# s $end
$upscope $end
$scope module ua1 $end
$var reg 1 I# a $end
$var reg 1 J# b $end
$var reg 1 K# s $end
$upscope $end
$scope module uor $end
$var reg 1 L# a $end
$var reg 1 M# b $end
$var reg 1 N# s $end
$upscope $end
$upscope $end
$scope module um3 $end
$var reg 1 O# a $end
$var reg 1 P# b $end
$var reg 1 Q# s $end
$var reg 1 R# z $end
$var reg 1 S# r $end
$var reg 1 T# p $end
$var reg 1 U# q $end
$scope module ui $end
$var reg 1 V# a $end
$var reg 1 W# s $end
$upscope $end
$scope module ua0 $end
$var reg 1 X# a $end
$var reg 1 Y# b $end
$var reg 1 Z# s $end
$upscope $end
$scope module ua1 $end
$var reg 1 [# a $end
$var reg 1 \# b $end
$var reg 1 ]# s $end
$upscope $end
$scope module uor $end
$var reg 1 ^# a $end
$var reg 1 _# b $end
$var reg 1 `# s $end
$upscope $end
$upscope $end
$upscope $end
$scope module um3 $end
$var reg 1 a# a $end
$var reg 1 b# b $end
$var reg 1 c# s $end
$var reg 1 d# z $end
$var reg 1 e# r $end
$var reg 1 f# p $end
$var reg 1 g# q $end
$scope module ui $end
$var reg 1 h# a $end
$var reg 1 i# s $end
$upscope $end
$scope module ua0 $end
$var reg 1 j# a $end
$var reg 1 k# b $end
$var reg 1 l# s $end
$upscope $end
$scope module ua1 $end
$var reg 1 m# a $end
$var reg 1 n# b $end
$var reg 1 o# s $end
$upscope $end
$scope module uor $end
$var reg 1 p# a $end
$var reg 1 q# b $end
$var reg 1 r# s $end
$upscope $end
$upscope $end
$upscope $end
$scope module u_mux8vet $end
$var reg 8 s# entr[7:0] $end
$var reg 3 t# sel[2:0] $end
$var reg 1 u# z $end
$var reg 1 v# p $end
$var reg 1 w# q $end
$var reg 1 x# r $end
$scope module um1 $end
$var reg 1 y# a $end
$var reg 1 z# b $end
$var reg 1 {# c $end
$var reg 1 |# d $end
$var reg 1 }# s0 $end
$var reg 1 !$ s1 $end
$var reg 1 "$ z $end
$var reg 1 #$ p $end
$var reg 1 $$ q $end
$var reg 1 %$ r $end
$scope module um1 $end
$var reg 1 &$ a $end
$var reg 1 '$ b $end
$var reg 1 ($ s $end
$var reg 1 )$ z $end
$var reg 1 *$ r $end
$var reg 1 +$ p $end
$var reg 1 ,$ q $end
$scope module ui $end
$var reg 1 -$ a $end
$var reg 1 .$ s $end
$upscope $end
$scope module ua0 $end
$var reg 1 /$ a $end
$var reg 1 0$ b $end
$var reg 1 1$ s $end
$upscope $end
$scope module ua1 $end
$var reg 1 2$ a $end
$var reg 1 3$ b $end
$var reg 1 4$ s $end
$upscope $end
$scope module uor $end
$var reg 1 5$ a $end
$var reg 1 6$ b $end
$var reg 1 7$ s $end
$upscope $end
$upscope $end
$scope module um2 $end
$var reg 1 8$ a $end
$var reg 1 9$ b $end
$var reg 1 :$ s $end
$var reg 1 ;$ z $end
$var reg 1 <$ r $end
$var reg 1 =$ p $end
$var reg 1 >$ q $end
$scope module ui $end
$var reg 1 ?$ a $end
$var reg 1 @$ s $end
$upscope $end
$scope module ua0 $end
$var reg 1 A$ a $end
$var reg 1 B$ b $end
$var reg 1 C$ s $end
$upscope $end
$scope module ua1 $end
$var reg 1 D$ a $end
$var reg 1 E$ b $end
$var reg 1 F$ s $end
$upscope $end
$scope module uor $end
$var reg 1 G$ a $end
$var reg 1 H$ b $end
$var reg 1 I$ s $end
$upscope $end
$upscope $end
$scope module um3 $end
$var reg 1 J$ a $end
$var reg 1 K$ b $end
$var reg 1 L$ s $end
$var reg 1 M$ z $end
$var reg 1 N$ r $end
$var reg 1 O$ p $end
$var reg 1 P$ q $end
$scope module ui $end
$var reg 1 Q$ a $end
$var reg 1 R$ s $end
$upscope $end
$scope module ua0 $end
$var reg 1 S$ a $end
$var reg 1 T$ b $end
$var reg 1 U$ s $end
$upscope $end
$scope module ua1 $end
$var reg 1 V$ a $end
$var reg 1 W$ b $end
$var reg 1 X$ s $end
$upscope $end
$scope module uor $end
$var reg 1 Y$ a $end
$var reg 1 Z$ b $end
$var reg 1 [$ s $end
$upscope $end
$upscope $end
$upscope $end
$scope module um2 $end
$var reg 1 \$ a $end
$var reg 1 ]$ b $end
$var reg 1 ^$ c $end
$var reg 1 _$ d $end
$var reg 1 `$ s0 $end
$var reg 1 a$ s1 $end
$var reg 1 b$ z $end
$var reg 1 c$ p $end
$var reg 1 d$ q $end
$var reg 1 e$ r $end
$scope module um1 $end
$var reg 1 f$ a $end
$var reg 1 g$ b $end
$var reg 1 h$ s $end
$var reg 1 i$ z $end
$var reg 1 j$ r $end
$var reg 1 k$ p $end
$var reg 1 l$ q $end
$scope module ui $end
$var reg 1 m$ a $end
$var reg 1 n$ s $end
$upscope $end
$scope module ua0 $end
$var reg 1 o$ a $end
$var reg 1 p$ b $end
$var reg 1 q$ s $end
$upscope $end
$scope module ua1 $end
$var reg 1 r$ a $end
$var reg 1 s$ b $end
$var reg 1 t$ s $end
$upscope $end
$scope module uor $end
$var reg 1 u$ a $end
$var reg 1 v$ b $end
$var reg 1 w$ s $end
$upscope $end
$upscope $end
$scope module um2 $end
$var reg 1 x$ a $end
$var reg 1 y$ b $end
$var reg 1 z$ s $end
$var reg 1 {$ z $end
$var reg 1 |$ r $end
$var reg 1 }$ p $end
$var reg 1 !% q $end
$scope module ui $end
$var reg 1 "% a $end
$var reg 1 #% s $end
$upscope $end
$scope module ua0 $end
$var reg 1 $% a $end
$var reg 1 %% b $end
$var reg 1 &% s $end
$upscope $end
$scope module ua1 $end
$var reg 1 '% a $end
$var reg 1 (% b $end
$var reg 1 )% s $end
$upscope $end
$scope module uor $end
$var reg 1 *% a $end
$var reg 1 +% b $end
$var reg 1 ,% s $end
$upscope $end
$upscope $end
$scope module um3 $end
$var reg 1 -% a $end
$var reg 1 .% b $end
$var reg 1 /% s $end
$var reg 1 0% z $end
$var reg 1 1% r $end
$var reg 1 2% p $end
$var reg 1 3% q $end
$scope module ui $end
$var reg 1 4% a $end
$var reg 1 5% s $end
$upscope $end
$scope module ua0 $end
$var reg 1 6% a $end
$var reg 1 7% b $end
$var reg 1 8% s $end
$upscope $end
$scope module ua1 $end
$var reg 1 9% a $end
$var reg 1 :% b $end
$var reg 1 ;% s $end
$upscope $end
$scope module uor $end
$var reg 1 <% a $end
$var reg 1 =% b $end
$var reg 1 >% s $end
$upscope $end
$upscope $end
$upscope $end
$scope module um3 $end
$var reg 1 ?% a $end
$var reg 1 @% b $end
$var reg 1 A% s $end
$var reg 1 B% z $end
$var reg 1 C% r $end
$var reg 1 D% p $end
$var reg 1 E% q $end
$scope module ui $end
$var reg 1 F% a $end
$var reg 1 G% s $end
$upscope $end
$scope module ua0 $end
$var reg 1 H% a $end
$var reg 1 I% b $end
$var reg 1 J% s $end
$upscope $end
$scope module ua1 $end
$var reg 1 K% a $end
$var reg 1 L% b $end
$var reg 1 M% s $end
$upscope $end
$scope module uor $end
$var reg 1 N% a $end
$var reg 1 O% b $end
$var reg 1 P% s $end
$upscope $end
$upscope $end
$upscope $end
$scope module u_demux2 $end
$var reg 1 Q% a $end
$var reg 1 R% s $end
$var reg 1 S% z $end
$var reg 1 T% w $end
$upscope $end
$scope module u_demux4 $end
$var reg 1 U% a $end
$var reg 1 V% s0 $end
$var reg 1 W% s1 $end
$var reg 1 X% x $end
$var reg 1 Y% y $end
$var reg 1 Z% z $end
$var reg 1 [% w $end
$upscope $end
$scope module u_demux8 $end
$var reg 1 \% a $end
$var reg 1 ]% s0 $end
$var reg 1 ^% s1 $end
$var reg 1 _% s2 $end
$var reg 1 `% p $end
$var reg 1 a% q $end
$var reg 1 b% r $end
$var reg 1 c% s $end
$var reg 1 d% t $end
$var reg 1 e% u $end
$var reg 1 f% v $end
$var reg 1 g% w $end
$upscope $end
$scope module u_decod2 $end
$var reg 1 h% s $end
$var reg 1 i% z $end
$var reg 1 j% w $end
$upscope $end
$scope module u_decod4 $end
$var reg 1 k% s0 $end
$var reg 1 l% s1 $end
$var reg 1 m% x $end
$var reg 1 n% y $end
$var reg 1 o% z $end
$var reg 1 p% w $end
$upscope $end
$scope module u_decod8 $end
$var reg 1 q% s0 $end
$var reg 1 r% s1 $end
$var reg 1 s% s2 $end
$var reg 1 t% p $end
$var reg 1 u% q $end
$var reg 1 v% r $end
$var reg 1 w% s $end
$var reg 1 x% t $end
$var reg 1 y% u $end
$var reg 1 z% v $end
$var reg 1 {% w $end
$upscope $end
$enddefinitions $end
#0
0!
0"
0#
0$
b000 %
0&
0'
0(
0)
0*
b00 +
b00 ,
b00 -
b00 .
b01 /
b0000 0
b0000 1
b0000 2
b0000 3
b0000 4
b00000000 5
b00000000 6
b00000000 7
b00000000 8
b00000000 9
0:
0;
0<
0=
1>
1?
1@
0A
1B
0C
1D
1E
0F
0G
1H
1I
1J
0K
0L
0M
0N
0O
0P
0Q
0R
0S
0T
0U
0V
0W
0X
0Y
1Z
1[
1\
0]
1^
0_
1`
1a
0b
0c
1d
1e
1f
0g
0h
0i
0j
0k
1l
1m
1n
0o
1p
0q
1r
1s
0t
0u
1v
1w
1x
0y
0z
0{
0|
0}
1!"
1""
1#"
0$"
1%"
0&"
1'"
1("
0)"
0*"
1+"
1,"
1-"
0."
0/"
00"
01"
02"
03"
04"
05"
06"
07"
08"
09"
0:"
0;"
0<"
0="
0>"
0?"
0@"
0A"
0B"
0C"
0D"
0E"
0F"
0G"
0H"
0I"
0J"
0K"
1L"
1M"
1N"
0O"
1P"
0Q"
1R"
1S"
0T"
0U"
1V"
1W"
1X"
0Y"
0Z"
0["
0\"
0]"
1^"
1_"
1`"
0a"
1b"
0c"
1d"
1e"
0f"
0g"
1h"
1i"
1j"
0k"
0l"
0m"
0n"
0o"
1p"
1q"
1r"
0s"
1t"
0u"
1v"
1w"
0x"
0y"
1z"
1{"
1|"
0}"
0!#
0"#
0##
0$#
0%#
0&#
0'#
0(#
0)#
0*#
0+#
0,#
0-#
0.#
1/#
10#
11#
02#
13#
04#
15#
16#
07#
08#
19#
1:#
1;#
0<#
0=#
0>#
0?#
0@#
1A#
1B#
1C#
0D#
1E#
0F#
1G#
1H#
0I#
0J#
1K#
1L#
1M#
0N#
0O#
0P#
0Q#
0R#
1S#
1T#
1U#
0V#
1W#
0X#
1Y#
1Z#
0[#
0\#
1]#
1^#
1_#
0`#
0a#
0b#
0c#
0d#
1e#
1f#
1g#
0h#
1i#
0j#
1k#
1l#
0m#
0n#
1o#
1p#
1q#
0r#
b00000000 s#
b000 t#
0u#
0v#
0w#
0x#
0y#
0z#
0{#
0|#
0}#
0!$
0"$
0#$
0$$
0%$
0&$
0'$
0($
0)$
1*$
1+$
1,$
0-$
1.$
0/$
10$
11$
02$
03$
14$
15$
16$
07$
08$
09$
0:$
0;$
1<$
1=$
1>$
0?$
1@$
0A$
1B$
1C$
0D$
0E$
1F$
1G$
1H$
0I$
0J$
0K$
0L$
0M$
1N$
1O$
1P$
0Q$
1R$
0S$
1T$
1U$
0V$
0W$
1X$
1Y$
1Z$
0[$
0\$
0]$
0^$
0_$
0`$
0a$
0b$
0c$
0d$
0e$
0f$
0g$
0h$
0i$
1j$
1k$
1l$
0m$
1n$
0o$
1p$
1q$
0r$
0s$
1t$
1u$
1v$
0w$
0x$
0y$
0z$
0{$
1|$
1}$
1!%
0"%
1#%
0$%
1%%
1&%
0'%
0(%
1)%
1*%
1+%
0,%
0-%
0.%
0/%
00%
11%
12%
13%
04%
15%
06%
17%
18%
09%
0:%
1;%
1<%
1=%
0>%
0?%
0@%
0A%
0B%
1C%
1D%
1E%
0F%
1G%
0H%
1I%
1J%
0K%
0L%
1M%
1N%
1O%
0P%
0Q%
0R%
0S%
0T%
0U%
0V%
0W%
0X%
0Y%
0Z%
0[%
0\%
0]%
0^%
0_%
0`%
0a%
0b%
0c%
0d%
0e%
0f%
0g%
0h%
0i%
0j%
0k%
0l%
0m%
0n%
0o%
0p%
0q%
0r%
0s%
0t%
0u%
0v%
0w%
0x%
0y%
0z%
0{%
#200000
1"
b001 %
b10 /
1<
0>
1A
0B
0D
1G
1P
1X
0Z
1]
0^
0`
1c
1j
0l
1o
0p
0r
1u
17"
1B"
1J"
0L"
1O"
0P"
0R"
1U"
1\"
0^"
1a"
0b"
0d"
1g"
1%#
1-#
0/#
12#
03#
05#
18#
1?#
0A#
1D#
0E#
0G#
1J#
b001 t#
1A%
0C%
1F%
0G%
0I%
1L%
1R%
1V%
1]%
1h%
1k%
1q%
#400000
1!
0"
b000 %
1&
1*
b01 +
b01 .
b01 /
1:
0<
1=
1>
0?
0A
1B
1C
1D
0E
0G
0I
1K
0P
0X
1Z
0]
1^
1`
0c
0j
1l
0o
1p
1r
0u
07"
0B"
0J"
1L"
0O"
1P"
1R"
0U"
0\"
1^"
0a"
1b"
1d"
0g"
0%#
0-#
1/#
02#
13#
15#
08#
0?#
1A#
0D#
1E#
1G#
0J#
b000 t#
0A%
1C%
0F%
1G%
1I%
0L%
1Q%
0R%
1U%
0V%
1\%
0]%
0h%
0k%
0q%
#600000
1"
b001 %
b10 +
b10 .
b10 /
0:
1;
1<
0>
1?
0@
1A
0B
0C
0D
1E
1F
1G
0H
1I
0J
1P
1X
0Z
1]
0^
0`
1c
1j
0l
1o
0p
0r
1u
17"
1B"
1J"
0L"
1O"
0P"
0R"
1U"
1\"
0^"
1a"
0b"
0d"
1g"
1%#
1-#
0/#
12#
03#
05#
18#
1?#
0A#
1D#
0E#
0G#
1J#
b001 t#
1A%
0C%
1F%
0G%
0I%
1L%
1R%
1V%
1]%
1h%
1k%
1q%
#800000
0!
0"
b000 %
0&
0*
b00 +
b00 .
b01 /
0;
0<
0=
1>
1@
0A
1B
1D
0F
0G
1H
1J
0K
0P
0X
1Z
0]
1^
1`
0c
0j
1l
0o
1p
1r
0u
07"
0B"
0J"
1L"
0O"
1P"
1R"
0U"
0\"
1^"
0a"
1b"
1d"
0g"
0%#
0-#
1/#
02#
13#
15#
08#
0?#
1A#
0D#
1E#
1G#
0J#
b000 t#
0A%
1C%
0F%
1G%
1I%
0L%
0Q%
0R%
0U%
0V%
0\%
0]%
0h%
0k%
0q%
#1000000
#1200000
#1400000
b0001 4
#1600000
1!
1'
1*
b0001 0
b0001 3
1L
1R
1S
1V
1Y
0[
1_
0a
0e
1g
1z
1}
0""
1&"
0("
0,"
1."
1Q%
1U%
1\%
#1800000
0!
1"
b001 %
0'
0*
b0000 0
b0000 3
b0010 4
1<
0>
1A
0B
0D
1G
0L
1P
0R
0S
0V
1X
0Y
0Z
1[
1]
0^
0_
0`
1a
1c
1e
0g
1j
0l
1o
0p
0r
1u
0z
0}
1""
0&"
1("
1,"
0."
17"
1B"
1J"
0L"
1O"
0P"
0R"
1U"
1\"
0^"
1a"
0b"
0d"
1g"
1%#
1-#
0/#
12#
03#
05#
18#
1?#
0A#
1D#
0E#
0G#
1J#
b001 t#
1A%
0C%
1F%
0G%
0I%
1L%
0Q%
1R%
0U%
1V%
0\%
1]%
1h%
1k%
1q%
#2000000
1!
1'
1*
b0010 0
b0010 3
1M
1R
1S
1W
1Y
0\
1b
0d
0f
1g
1z
1}
0""
1&"
0("
0,"
1."
1Q%
1U%
1\%
#2200000
0!
0"
b000 %
0'
0*
b0000 0
b0000 3
b0001 4
0<
1>
0A
1B
1D
0G
0M
0P
0R
0S
0W
0X
0Y
1Z
1\
0]
1^
1`
0b
0c
1d
1f
0g
0j
1l
0o
1p
1r
0u
0z
0}
1""
0&"
1("
1,"
0."
07"
0B"
0J"
1L"
0O"
1P"
1R"
0U"
0\"
1^"
0a"
1b"
1d"
0g"
0%#
0-#
1/#
02#
13#
15#
08#
0?#
1A#
0D#
1E#
1G#
0J#
b000 t#
0A%
1C%
0F%
1G%
1I%
0L%
0Q%
0R%
0U%
0V%
0\%
0]%
0h%
0k%
0q%
#2400000
#2600000
#2800000
b00000001 9
#3000000
1!
1(
1*
b00000001 5
b00000001 8
1/"
1:"
1;"
1>"
1D"
1E"
1H"
1K"
0M"
1Q"
0S"
0W"
1Y"
1l"
1o"
0q"
1u"
0w"
0{"
1}"
1a#
1d#
0f#
1j#
0l#
0p#
1r#
b00000001 s#
1_$
1y$
1'%
1Q%
1U%
1\%
#3200000
0!
1"
b001 %
0(
0*
b00000000 5
b00000000 8
b00000010 9
1<
0>
1A
0B
0D
1G
1P
1X
0Z
1]
0^
0`
1c
1j
0l
1o
0p
0r
1u
0/"
17"
0:"
0;"
0>"
1B"
0D"
0E"
0H"
1J"
0K"
0L"
1M"
1O"
0P"
0Q"
0R"
1S"
1U"
1W"
0Y"
1\"
0^"
1a"
0b"
0d"
1g"
0l"
0o"
1q"
0u"
1w"
1{"
0}"
1%#
1-#
0/#
12#
03#
05#
18#
1?#
0A#
1D#
0E#
0G#
1J#
0a#
0d#
1f#
0j#
1l#
1p#
0r#
b00000000 s#
b001 t#
0_$
0y$
0'%
1A%
0C%
1F%
0G%
0I%
1L%
0Q%
1R%
0U%
1V%
0\%
1]%
1h%
1k%
1q%
#3400000
1!
1(
1*
b00000010 5
b00000010 8
10"
1:"
1;"
1?"
1D"
1E"
1I"
1K"
0N"
1T"
0V"
0X"
1Y"
1l"
1o"
0q"
1u"
0w"
0{"
1}"
1a#
1d#
0f#
1j#
0l#
0p#
1r#
b00000010 s#
1^$
1d$
1x$
1{$
0}$
1$%
0&%
0*%
1,%
1.%
19%
1Q%
1U%
1\%
#3600000
0!
0"
1#
b010 %
0(
0*
b00000000 5
b00000000 8
b00000100 9
0<
1>
0A
1B
1D
0G
0P
1Q
0X
1Z
0]
1^
1`
0c
0j
1l
0o
1p
1r
0u
1|
0!"
1$"
0%"
0'"
1*"
00"
07"
18"
0:"
0;"
0?"
0B"
1C"
0D"
0E"
0I"
0J"
0K"
1L"
1N"
0O"
1P"
1R"
0T"
0U"
1V"
1X"
0Y"
0\"
1^"
0a"
1b"
1d"
0g"
0l"
1n"
0o"
0p"
1q"
1s"
0t"
0u"
0v"
1w"
1y"
1{"
0}"
0%#
1&#
0-#
1/#
02#
13#
15#
08#
0?#
1A#
0D#
1E#
1G#
0J#
1Q#
0S#
1V#
0W#
0Y#
1\#
0a#
0d#
1f#
0j#
1l#
1p#
0r#
b00000000 s#
b010 t#
0w#
1!$
1L$
0N$
1Q$
0R$
0T$
1W$
0^$
1a$
0b$
0d$
0x$
0{$
1}$
0$%
1&%
1*%
0,%
0.%
1/%
00%
01%
13%
14%
05%
07%
09%
1:%
1;%
1=%
0>%
0@%
0A%
1C%
0F%
1G%
1I%
0K%
0L%
0Q%
0R%
0U%
0V%
1W%
0\%
0]%
1^%
0h%
0k%
1l%
0q%
1r%
#3800000
1!
1(
1*
b00000100 5
b00000100 8
11"
1:"
1;"
1@"
1D"
1F"
1Z"
1]"
0_"
1c"
0e"
0i"
1k"
1m"
1o"
0r"
1x"
0z"
0|"
1}"
1a#
1d#
0f#
1j#
0l#
0p#
1r#
b00000100 s#
1]$
1g$
1r$
1Q%
1U%
1\%
#4000000
0!
0#
b000 %
0(
0*
b00000000 5
b00000000 8
b00000001 9
0Q
0|
1!"
0$"
1%"
1'"
0*"
01"
08"
0:"
0;"
0@"
0C"
0D"
0F"
0Z"
0]"
1_"
0c"
1e"
1i"
0k"
0m"
0n"
0o"
1p"
1r"
0s"
1t"
1v"
0x"
0y"
1z"
1|"
0}"
0&#
0Q#
1S#
0V#
1W#
1Y#
0\#
0a#
0d#
1f#
0j#
1l#
1p#
0r#
b00000000 s#
b000 t#
0!$
0L$
1N$
0Q$
1R$
1T$
0W$
0]$
0a$
0g$
0r$
0/%
11%
04%
15%
17%
0:%
0Q%
0U%
0W%
0\%
0^%
0l%
0r%
